1	0.00292969	0.0003365237662	0.00366211	0.0003452660991
1	0.008300786	0.002051365832	0.008886722	0.002772476136
2	0.003955078	0.0004721442895	0.004296876	0.0004734069323
2	0.0046875	0.0004326191009	0.006489454	0.0005835994664
3	0.003515626	0.0005382165832	0.006201176	0.0006974057851
3	0.006054686	0.0005849202446	0.00551758	0.0009315812514
4	0.006445272	0.0008478178373	0.011274612	0.001937487523
4	0.0069336	0.001172389594	0.007958976	0.002165287257
5	0.011279304	0.002343496883	0.03792968	0.006133936516
5	0.008740232	0.002610597166	0.014843756	0.001335878954
6	0.03012694	0.003377278672	0.1554488	0.01460383015
6	0.006982422	0.0008513467903	0.011621088	0.002113752192
7	0.09973156	0.03422377033	1.280176	0.04241945905
7	0.009570322	0.00260831443	0.014892596	0.002038238725
8	1.0347176	0.01883388918	8.789454	0.1540072991
8	0.015527324	0.003199633274	0.01918946	0.001647909063
9	5.04912	0.05150476793	81.63914	4.720554237
9	0.016064452	0.003713341689	0.01381834	0.0004541318119
10	50.10614	0.1501094321	861.8052	25.66344669
10	0.0161621	0.002170522567	0.020459	0.00491044336
11	653.8938	3.667042083	7600.564	17.0978284
11	0.0171387	0.001692160403	0.02294924	0.001431921283
12	7618.654	9.893502211	73003.1	4233.4
12	0.018359368	0.002333298076	0.02299804	0.002338403019
13	81127.83333	4235.63681	0	0
13	0.01948242	0.004172867678	0.02470702	0.003341599897
14	0	0	0	0
14	0.02431172	0.004939312964	0.0265625	0.001919884879
15	0	0	0	0
15	0.02373048	0.004985143206	0.03095702	0.004663920703
16	0	0	0	0
16	0.02036134	0.002254302652	0.03549806	0.003503718201
17	0	0	0	0
17	0.02128906	0.005843791241	0.04296876	0.001099993931
18	0	0	0	0
18	0.02720856	0.002877800488	0.04970702	0.003108934888
19	0	0	0	0
19	0.02319334	0.0009704380612	0.05307398	0.002372668991
20	0	0	0	0
20	0.02382812	0.002154245838	0.053675	0.001119070747
25	0	0	0	0
25	0.04106446	0.003620709508	0.09345176	0.004247523096
30	0	0	0	0
30	0.054003758	0.006115015762	0.08613304	0.002530698024
35	0	0	0	0
35	0.08232424	0.001269532308	0.1792574	0.01458363876
40	0	0	0	0
40	0.08720704	0.008279372306	0.2558595	0.007169966347
50	0	0	0	0
50	0.164551	0.01105935952	0.4009603333	0.0501246616
75	0	0	0	0
75	0.51007075	0.02836091071	1.4921275	0.07554053177
125	0	0	0	0
125	2.37134	0.00073	6.17432	0.07731448366
150	0	0	0	0
150	3.951662	0.0164178124	9.903804	0.5706037387
200	0	0	0	0
200	9.311182	0.2882871196	24.7155	0.3036893149
